[
    {
      "iid": "1527542",
      "title": "SyntaxError: Invalid or unexpected token",
      "severity": "CRITICAL",
      "eventCount": 7,
      "startedAt": "2020-04-17T23:18:14.996Z",
      "endedAt": "2020-04-17T23:18:14.996Z",
      "status": "triggered"
    },
    {
      "iid": "1527542",
      "title": "Some otherr alert Some otherr alert Some otherr alert Some otherr alert Some otherr alert Some otherr alert",
      "severity": "MEDIUM",
      "eventCount": 1,
      "startedAt": "2020-04-17T23:18:14.996Z",
      "endedAt": "2020-04-17T23:18:14.996Z",
      "status": "acknowledged"
    },
    {
      "iid": "1527542",
      "title": "SyntaxError: Invalid or unexpected token",
      "severity": "LOW",
      "eventCount": 4,
      "startedAt": "2020-04-17T23:18:14.996Z",
      "endedAt": "2020-04-17T23:18:14.996Z",
      "status": "resolved"
    }
  ]
